crisis	error	seed
2332	0	233.0
2224	0	122.0
2189	1	90.0
1956	1	356.0
2045	1	38.0
581	0	43.0
1915	1	492.0
2150	1	54.0
440	0	93.0
2317	0	314.0
2096	1	142.0
2042	1	259.0
1928	1	401.0
1942	1	448.0
2328	0	58.0
2068	1	485.0
1985	1	288.0
2156	1	113.0
2065	1	489.0
2353	0	330.0
2010	1	51.0
2301	0	423.0
2238	1	161.0
2089	1	279.0
1958	1	291.0
2321	0	350.0
2135	1	500.0
1995	1	202.0
336	0	263.0
2031	1	26.0
281	0	216.0
2355	0	236.0
2078	1	200.0
1998	1	326.0
2272	0	139.0
2080	1	224.0
1994	1	482.0
2025	1	439.0
1952	1	145.0
2232	0	155.0
2271	0	261.0
1977	1	274.0
2337	0	72.0
1945	1	209.0
2108	1	353.0
2201	0	396.0
2234	0	304.0
2107	1	476.0
1960	1	49.0
2236	1	131.0
2268	0	426.0
2233	0	493.0
1984	1	158.0
2416	0	470.0
2020	1	328.0
2001	1	162.0
2234	0	152.0
2237	0	337.0
2309	0	471.0
2279	0	127.0
555	0	480.0
2243	0	466.0
2283	0	28.0
1991	1	455.0
2306	0	306.0
2183	0	240.0
2223	1	87.0
2257	0	159.0
2050	1	182.0
1963	1	46.0
2015	1	14.0
2320	0	376.0
2350	0	109.0
2269	0	138.0
2367	0	457.0
2432	0	375.0
2252	0	91.0
280	0	241.0
2087	1	464.0
2375	0	50.0
1949	1	40.0
2007	1	149.0
2067	1	148.0
2168	1	169.0
362	0	361.0
416	0	461.0
2031	1	88.0
469	0	95.0
262	0	9.0
2035	1	284.0
312	0	176.0
2332	0	460.0
2062	1	368.0
2028	1	27.0
2265	0	310.0
2372	0	413.0
2215	0	164.0
2325	0	48.0
2136	1	495.0
2397	0	398.0
2005	1	491.0
2009	1	198.0
1993	1	189.0
2355	0	134.0
2290	0	34.0
2361	0	119.0
2186	1	312.0
2236	0	253.0
2341	0	404.0
2399	0	308.0
2327	0	230.0
2122	1	392.0
2228	0	383.0
1963	1	238.0
2474	0	121.0
1974	1	215.0
2344	0	410.0
2122	1	31.0
2025	1	30.0
2056	1	147.0
2274	0	321.0
2309	0	316.0
2276	0	118.0
2409	0	499.0
2348	0	173.0
2057	1	247.0
2274	0	311.0
1919	1	23.0
2015	1	380.0
2303	0	339.0
2250	0	334.0
2275	0	297.0
1994	1	446.0
1918	1	418.0
2313	0	436.0
2012	1	144.0
1959	1	168.0
2294	0	186.0
306	0	332.0
1990	1	258.0
1954	1	318.0
2425	0	296.0
2456	0	75.0
2275	0	309.0
2290	0	7.0
1970	1	196.0
1973	1	399.0
2008	1	417.0
2050	1	79.0
2262	0	442.0
2049	1	105.0
2031	1	56.0
2252	0	256.0
1984	1	278.0
2337	0	232.0
2266	0	416.0
2088	1	64.0
2354	0	18.0
2259	0	475.0
2394	0	333.0
2363	0	193.0
2023	1	190.0
369	0	266.0
2253	0	77.0
2339	0	355.0
2047	1	125.0
2229	0	354.0
2350	0	347.0
2229	1	199.0
1948	1	237.0
2227	0	188.0
2265	0	220.0
2014	1	453.0
396	0	61.0
2324	0	469.0
1994	1	183.0
2224	0	251.0
1996	1	450.0
264	0	421.0
1963	1	341.0
2084	1	172.0
1980	1	85.0
2289	0	89.0
2037	1	390.0
375	0	377.0
2255	0	74.0
2286	0	283.0
2074	1	472.0
2304	0	348.0
2346	0	325.0
2313	0	201.0
2281	0	184.0
2082	1	481.0
2342	0	302.0
2280	0	146.0
2405	0	357.0
2606	0	177.0
2441	0	451.0
1944	1	445.0
2377	0	211.0
2272	0	35.0
2043	1	174.0
2233	0	486.0
2057	1	327.0
2057	1	15.0
2028	1	76.0
2066	1	226.0
404	0	378.0
2385	0	294.0
2393	0	99.0
2120	1	165.0
2377	0	3.0
2053	1	299.0
1953	1	116.0
2297	0	66.0
1996	1	372.0
2036	1	70.0
2561	0	235.0
2147	1	53.0
1975	1	488.0
2331	0	387.0
2346	0	73.0
1951	1	135.0
2315	0	391.0
2090	1	197.0
2055	1	20.0
2301	0	406.0
306	0	405.0
2273	0	57.0
2156	1	419.0
2351	0	449.0
2193	1	435.0
2415	0	494.0
2239	0	411.0
2354	0	385.0
2391	0	420.0
2008	1	100.0
2394	0	242.0
2332	0	484.0
430	0	441.0
2083	1	108.0
2032	1	81.0
2199	1	424.0
320	0	47.0
2284	0	331.0
2035	1	227.0
2338	0	203.0
2116	1	167.0
2312	0	478.0
2304	0	254.0
2307	0	345.0
2363	0	180.0
419	0	373.0
2297	0	133.0
2391	0	4.0
2294	0	305.0
2371	0	320.0
2227	0	206.0
2261	0	252.0
2329	0	286.0
497	0	473.0
2013	1	228.0
1986	1	94.0
2297	0	295.0
1957	1	212.0
1950	1	300.0
1958	1	225.0
2247	0	292.0
2265	0	427.0
1969	1	402.0
2246	1	264.0
254	0	86.0
365	0	107.0
2281	0	412.0
2455	0	42.0
2295	0	452.0
2408	0	409.0
2343	0	120.0
2088	1	179.0
1996	1	178.0
784	0	340.0
2007	1	204.0
2108	1	425.0
2007	1	379.0
2213	1	381.0
2035	1	463.0
658	0	415.0
2402	1	11.0
2284	0	156.0
2329	0	394.0
361	0	128.0
2058	1	338.0
1992	1	191.0
2379	0	106.0
1998	1	181.0
2376	0	229.0
2218	0	44.0
2407	0	393.0
729	0	117.0
1958	1	290.0
2026	1	124.0
2078	1	19.0
2363	0	166.0
2117	1	386.0
2321	0	123.0
277	0	140.0
1960	1	267.0
2010	1	217.0
379	0	101.0
2431	0	459.0
2068	1	408.0
1967	1	444.0
1979	1	160.0
2374	0	363.0
2319	0	175.0
1975	1	265.0
2318	0	153.0
2035	1	438.0
1974	1	170.0
1935	1	358.0
2336	0	359.0
1990	1	24.0
2364	0	281.0
1960	1	465.0
2243	0	192.0
1986	1	317.0
2342	0	245.0
2020	1	110.0
1984	1	84.0
1985	1	103.0
2278	0	374.0
1930	1	207.0
1987	1	349.0
2446	0	447.0
2305	0	429.0
2072	1	362.0
2460	0	114.0
2299	0	301.0
1976	1	68.0
2022	1	433.0
2262	0	10.0
2357	0	298.0
2094	1	1.0
2268	0	403.0
2059	1	82.0
2394	0	71.0
2432	0	12.0
2049	1	496.0
2381	0	428.0
2251	0	136.0
2238	0	221.0
2094	1	319.0
1997	1	400.0
1971	1	248.0
2020	1	59.0
2251	0	431.0
333	0	6.0
325	0	487.0
545	0	276.0
2372	0	219.0
1987	1	78.0
2023	1	329.0
2135	1	33.0
2032	1	272.0
2329	0	479.0
2000	1	270.0
2261	0	367.0
2294	0	5.0
354	0	323.0
2319	0	468.0
2274	0	102.0
2000	1	382.0
1988	1	129.0
295	0	384.0
2303	0	213.0
2066	1	194.0
2384	1	25.0
1927	1	96.0
2044	1	222.0
2337	0	98.0
1946	1	456.0
2318	0	315.0
2019	1	346.0
2466	0	208.0
2017	1	249.0
2327	0	370.0
2426	0	210.0
1961	1	13.0
1965	1	60.0
2045	1	115.0
1923	1	369.0
1979	1	185.0
1996	1	260.0
2076	1	67.0
2020	1	111.0
2215	0	41.0
2025	1	293.0
2061	1	324.0
2412	0	126.0
2438	0	307.0
2107	1	80.0
2314	0	343.0
2022	1	36.0
2282	0	37.0
2298	0	218.0
793	0	52.0
1894	1	342.0
2123	1	243.0
2388	0	92.0
2234	0	17.0
2287	0	2.0
2012	1	246.0
2346	0	414.0
417	0	32.0
2303	0	231.0
2376	0	462.0
1955	1	63.0
2302	0	454.0
1999	1	157.0
2334	0	352.0
1983	1	443.0
2296	0	477.0
2124	1	497.0
2287	0	365.0
2315	0	83.0
1986	1	132.0
537	0	395.0
2453	0	371.0
1952	1	360.0
365	0	16.0
1976	1	39.0
2332	0	214.0
2246	0	271.0
2049	1	154.0
2311	0	389.0
1991	1	150.0
1993	1	287.0
2069	1	269.0
1998	1	141.0
1964	1	322.0
1999	1	483.0
2325	0	351.0
2083	1	257.0
367	0	289.0
2248	0	434.0
