between	first-crisis	is_error	second-crisis	seed	total
5	11	0	66	439.0	82
6	11	0	60	419.0	77
5	11	0	66	326.0	82
5	11	0	71	478.0	87
6	11	0	59	490.0	76
4	12	0	62	136.0	78
6	11	0	67	341.0	84
6	11	0	66	438.0	83
5	11	0	63	150.0	79
5	11	0	65	445.0	81
6	11	0	62	311.0	79
5	11	0	79	35.0	95
6	11	0	65	176.0	82
5	11	0	69	425.0	85
5	11	0	69	458.0	85
5	11	0	76	292.0	92
4	12	0	75	345.0	91
4	12	0	70	477.0	86
6	11	0	59	113.0	76
6	11	0	72	168.0	89
5	11	0	72	365.0	88
5	11	0	67	355.0	83
6	11	0	61	342.0	78
4	12	0	67	474.0	83
6	11	0	64	214.0	81
4	12	0	70	34.0	86
6	11	0	59	426.0	76
4	12	0	67	467.0	83
5	11	0	68	152.0	84
6	11	0	66	145.0	83
6	11	0	69	29.0	86
3	12	0	67	13.0	82
5	11	0	72	366.0	88
5	11	0	64	114.0	80
4	12	0	69	460.0	85
5	11	0	73	410.0	89
5	11	0	59	347.0	75
5	11	0	69	500.0	85
6	11	0	63	180.0	80
5	11	0	65	424.0	81
5	11	0	73	125.0	89
5	11	0	66	444.0	82
5	11	0	67	429.0	83
5	11	0	61	324.0	77
5	11	0	70	379.0	86
5	11	0	70	373.0	86
6	11	0	65	157.0	82
6	11	0	71	52.0	88
5	11	0	70	299.0	86
6	11	0	69	92.0	86
4	12	0	67	401.0	83
6	11	0	74	489.0	91
4	12	0	70	110.0	86
4	12	0	68	293.0	84
6	11	0	65	190.0	82
5	11	0	67	437.0	83
4	12	0	66	331.0	82
4	12	0	64	212.0	80
6	11	0	76	129.0	93
5	11	0	65	159.0	81
5	11	0	60	131.0	76
5	11	0	65	140.0	81
5	11	0	64	447.0	80
5	11	0	74	83.0	90
5	11	0	68	66.0	84
5	11	0	72	412.0	88
6	11	0	62	56.0	79
5	11	0	71	255.0	87
5	11	0	61	170.0	77
6	11	0	62	457.0	79
6	11	0	71	430.0	88
5	11	0	68	101.0	84
4	12	0	68	173.0	84
5	11	0	68	91.0	84
3	12	0	77	138.0	92
6	11	0	74	186.0	91
5	11	0	67	288.0	83
5	11	0	69	381.0	85
5	11	0	69	246.0	85
5	11	0	70	349.0	86
6	11	0	67	465.0	84
5	11	0	70	184.0	86
5	11	0	62	69.0	78
6	11	0	70	48.0	87
5	11	0	73	33.0	89
4	12	0	68	416.0	84
6	11	0	57	231.0	74
6	11	0	73	9.0	90
6	11	0	66	84.0	83
6	11	0	61	149.0	78
6	11	0	61	404.0	78
4	12	0	67	274.0	83
5	11	0	70	112.0	86
4	12	0	64	5.0	80
4	12	0	65	352.0	81
5	11	0	73	257.0	89
6	11	0	73	287.0	90
4	12	0	68	422.0	84
3	12	0	69	481.0	84
5	11	0	66	181.0	82
5	11	0	66	211.0	82
5	11	0	66	61.0	82
5	11	0	71	461.0	87
6	11	0	64	213.0	81
5	11	0	69	155.0	85
5	11	0	65	67.0	81
4	12	0	73	350.0	89
5	11	0	64	51.0	80
4	12	0	67	453.0	83
6	11	0	75	414.0	92
5	11	0	65	54.0	81
5	11	0	68	459.0	84
6	11	0	63	134.0	80
6	11	0	59	475.0	76
5	11	0	66	363.0	82
6	11	0	66	132.0	83
5	11	0	67	351.0	83
6	11	0	68	230.0	85
5	11	0	67	285.0	83
5	11	0	71	146.0	87
4	12	0	71	413.0	87
5	11	0	68	399.0	84
6	11	0	76	423.0	93
6	11	0	71	158.0	88
4	12	0	64	472.0	80
4	12	0	70	62.0	86
5	11	0	72	372.0	88
5	11	0	69	151.0	85
4	12	0	64	77.0	80
5	11	0	72	223.0	88
6	11	0	71	130.0	88
4	12	0	66	229.0	82
6	11	0	64	449.0	81
5	11	0	66	394.0	82
5	11	0	66	126.0	82
5	11	0	70	124.0	86
4	12	0	70	49.0	86
4	12	0	66	32.0	82
5	11	0	63	238.0	79
4	12	0	65	240.0	81
4	12	0	71	406.0	87
5	11	0	74	259.0	90
6	11	0	61	250.0	78
5	11	0	63	290.0	79
5	11	0	70	20.0	86
6	11	0	68	215.0	85
5	11	0	71	234.0	87
6	11	0	70	102.0	87
4	12	0	62	98.0	78
6	11	0	63	65.0	80
6	11	0	66	42.0	83
5	11	0	66	487.0	82
5	11	0	71	187.0	87
6	11	0	61	495.0	78
5	11	0	69	76.0	85
6	11	0	64	265.0	81
5	11	0	71	417.0	87
6	11	0	69	235.0	86
5	11	0	68	294.0	84
6	11	0	77	191.0	94
7	11	0	65	90.0	83
5	11	0	66	226.0	82
4	12	0	63	256.0	79
5	11	0	79	39.0	95
5	11	0	67	329.0	83
5	11	0	69	463.0	85
6	11	0	69	253.0	86
5	11	0	68	4.0	84
5	11	0	69	182.0	85
6	11	0	66	297.0	83
5	11	0	71	308.0	87
5	11	0	64	428.0	80
5	11	0	72	209.0	88
5	11	0	63	1.0	79
5	11	0	74	272.0	90
6	11	0	71	3.0	88
6	11	0	63	269.0	80
5	11	0	72	37.0	88
6	11	0	69	476.0	86
5	11	0	71	116.0	87
5	11	0	68	171.0	84
4	12	0	71	281.0	87
5	11	0	64	353.0	80
6	11	0	66	491.0	83
5	11	0	62	497.0	78
6	11	0	66	323.0	83
5	11	0	66	480.0	82
5	11	0	68	484.0	84
6	11	0	68	302.0	85
6	11	0	62	97.0	79
5	11	0	72	75.0	88
3	12	0	62	38.0	77
6	11	0	63	488.0	80
6	11	0	69	261.0	86
6	11	0	66	264.0	83
6	11	0	64	74.0	81
6	11	0	63	194.0	80
5	11	0	66	227.0	82
6	11	0	68	469.0	85
5	11	0	68	359.0	84
5	11	0	68	7.0	84
6	11	0	72	499.0	89
5	11	0	68	284.0	84
4	12	0	72	25.0	88
6	11	0	74	244.0	91
5	11	0	67	296.0	83
4	12	0	73	14.0	89
1	13	0	66	128.0	80
6	11	0	67	455.0	84
6	11	0	70	70.0	87
6	11	0	64	208.0	81
4	12	0	58	405.0	74
4	12	0	76	148.0	92
5	11	0	64	239.0	80
5	11	0	66	479.0	82
5	11	0	66	441.0	82
6	11	0	67	192.0	84
6	11	0	70	161.0	87
5	11	0	61	100.0	77
6	11	0	68	330.0	85
3	12	0	70	165.0	85
5	11	0	72	336.0	88
6	11	0	66	361.0	83
6	11	0	67	106.0	84
5	11	0	71	471.0	87
6	11	0	64	198.0	81
5	11	0	67	2.0	83
5	11	0	67	28.0	83
4	12	0	61	402.0	77
4	12	0	68	80.0	84
5	11	0	63	156.0	79
5	11	0	71	338.0	87
3	12	0	65	442.0	80
6	11	0	68	415.0	85
6	11	0	64	45.0	81
5	11	0	71	18.0	87
6	11	0	66	322.0	83
5	11	0	61	166.0	77
5	11	0	67	496.0	83
5	11	0	68	462.0	84
6	11	0	66	258.0	83
5	11	0	67	22.0	83
6	11	0	76	137.0	93
5	11	0	56	81.0	72
4	12	0	67	30.0	83
6	11	0	64	233.0	81
5	11	0	66	325.0	82
5	11	0	68	303.0	84
6	11	0	59	72.0	76
5	11	0	68	122.0	84
4	12	0	71	317.0	87
5	11	0	70	221.0	86
5	11	0	67	384.0	83
5	11	0	70	291.0	86
6	11	0	63	205.0	80
5	11	0	63	420.0	79
5	11	0	67	304.0	83
6	11	0	63	167.0	80
5	11	0	69	41.0	85
5	11	0	63	210.0	79
5	11	0	59	286.0	75
5	11	0	68	358.0	84
6	11	0	63	289.0	80
4	12	0	76	432.0	92
5	11	0	72	119.0	88
5	11	0	67	305.0	83
3	12	0	68	314.0	83
6	11	0	67	313.0	84
5	11	0	64	89.0	80
3	12	0	66	195.0	81
6	11	0	70	318.0	87
4	12	0	77	343.0	93
4	12	0	83	492.0	99
6	11	0	67	139.0	84
5	11	0	88	243.0	104
5	11	0	65	179.0	81
6	11	0	75	383.0	92
6	11	0	67	356.0	84
6	11	0	66	369.0	83
6	11	0	71	17.0	88
6	11	0	75	339.0	92
6	11	0	59	64.0	76
6	11	0	73	385.0	90
5	11	0	72	364.0	88
5	11	0	66	123.0	82
5	11	0	76	433.0	92
5	11	0	66	27.0	82
5	11	0	70	327.0	86
6	11	0	62	411.0	79
6	11	0	66	266.0	83
5	11	0	75	332.0	91
6	11	0	70	175.0	87
7	11	0	63	73.0	81
6	11	0	69	24.0	86
6	11	0	65	298.0	82
5	11	0	57	95.0	73
5	11	0	68	400.0	84
6	11	0	64	335.0	81
4	12	0	65	71.0	81
5	11	0	62	388.0	78
5	11	0	67	99.0	83
5	11	0	71	273.0	87
5	11	0	68	104.0	84
6	11	0	69	498.0	86
5	11	0	71	398.0	87
5	11	0	65	183.0	81
5	11	0	67	53.0	83
5	11	0	67	316.0	83
5	11	0	66	160.0	82
6	11	0	70	201.0	87
6	11	0	63	348.0	80
5	11	0	67	197.0	83
6	11	0	64	262.0	81
4	12	0	69	218.0	85
5	11	0	72	163.0	88
6	11	0	68	377.0	85
5	11	0	63	307.0	79
6	11	0	66	427.0	83
4	12	0	76	12.0	92
6	11	0	65	408.0	82
6	11	0	68	279.0	85
6	11	0	65	107.0	82
6	11	0	70	300.0	87
6	11	0	70	494.0	87
4	12	0	69	88.0	85
6	11	0	66	237.0	83
4	12	0	66	282.0	82
6	11	0	73	271.0	90
5	11	0	65	333.0	81
4	12	0	69	397.0	85
5	11	0	65	31.0	81
5	11	0	65	242.0	81
3	12	0	71	115.0	86
6	11	0	71	40.0	88
5	11	0	69	268.0	85
5	11	0	73	23.0	89
5	11	0	67	374.0	83
5	11	0	68	403.0	84
5	11	0	75	267.0	91
5	11	0	72	108.0	88
5	11	0	56	301.0	72
6	11	0	68	217.0	85
4	12	0	70	36.0	86
4	12	0	66	162.0	82
5	11	0	75	334.0	91
5	11	0	69	203.0	85
6	11	0	66	436.0	83
6	11	0	65	252.0	82
5	11	0	68	280.0	84
5	11	0	67	47.0	83
5	11	0	66	241.0	82
4	12	0	67	248.0	83
6	11	0	75	79.0	92
4	12	0	66	189.0	82
6	11	0	74	371.0	91
6	11	0	66	87.0	83
5	11	0	69	10.0	85
5	11	0	68	121.0	84
4	12	0	73	321.0	89
6	11	0	70	174.0	87
5	11	0	69	456.0	85
6	11	0	64	380.0	81
5	11	0	69	224.0	85
6	11	0	67	435.0	84
5	11	0	59	206.0	75
5	11	0	68	389.0	84
5	11	0	66	82.0	82
6	11	0	58	440.0	75
5	11	0	67	328.0	83
6	11	0	62	443.0	79
5	11	0	65	468.0	81
4	12	0	65	276.0	81
6	11	0	66	320.0	83
6	11	0	62	11.0	79
6	11	0	61	19.0	78
6	11	0	74	454.0	91
6	11	0	69	143.0	86
5	11	0	66	275.0	82
6	11	0	74	105.0	91
5	11	0	68	295.0	84
4	12	0	78	172.0	94
5	11	0	67	117.0	83
6	11	0	71	278.0	88
5	11	0	75	207.0	91
5	11	0	66	370.0	82
6	11	0	63	133.0	80
5	11	0	70	225.0	86
5	11	0	64	222.0	80
4	12	0	63	251.0	79
5	11	0	66	409.0	82
6	11	0	67	55.0	84
3	12	0	65	142.0	80
6	11	0	63	93.0	80
4	12	0	66	263.0	82
6	11	0	67	407.0	84
4	12	0	71	111.0	87
4	12	0	61	135.0	77
5	11	0	75	482.0	91
6	11	0	56	247.0	73
6	11	0	65	446.0	82
4	12	0	71	78.0	87
5	11	0	63	378.0	79
3	12	0	72	448.0	87
3	12	0	62	270.0	77
5	11	0	67	44.0	83
6	11	0	66	421.0	83
5	11	0	73	464.0	89
5	11	0	73	391.0	89
5	11	0	67	344.0	83
5	11	0	65	196.0	81
4	12	0	69	144.0	85
4	12	0	64	178.0	80
4	12	0	61	395.0	77
3	12	0	69	202.0	84
6	11	0	71	219.0	88
5	11	0	70	310.0	86
6	11	0	76	418.0	93
