between	first-crisis	is_error	second-crisis	seed	total
41	7	0	65	372.0	113
32	7	0	49	119.0	88
31	7	0	55	202.0	93
38	7	0	47	415.0	92
34	7	0	50	83.0	91
50	7	0	100	45.0	157
34	7	0	53	447.0	94
41	7	0	84	485.0	132
40	7	0	45	151.0	92
44	7	0	86	384.0	137
40	7	0	66	335.0	113
45	7	0	83	206.0	135
40	7	0	60	242.0	107
39	7	0	48	468.0	94
44	7	0	55	266.0	106
38	7	0	85	131.0	130
35	7	0	49	369.0	91
29	7	0	60	76.0	96
30	7	0	57	448.0	94
39	7	0	85	248.0	131
40	7	0	46	486.0	93
35	7	0	66	51.0	108
33	7	0	48	96.0	88
39	7	0	53	497.0	99
30	7	0	47	194.0	84
41	7	0	41	478.0	89
43	7	0	47	367.0	97
38	7	0	53	8.0	98
33	7	0	46	277.0	86
35	7	0	50	410.0	92
27	7	0	63	212.0	97
37	7	0	74	221.0	118
39	7	0	46	342.0	92
47	7	0	41	215.0	95
40	7	0	44	315.0	91
42	7	0	85	183.0	134
37	7	0	65	140.0	109
41	7	0	78	129.0	126
36	7	0	77	365.0	120
36	7	0	52	285.0	95
41	7	0	61	302.0	109
46	7	0	97	238.0	150
42	7	0	44	52.0	93
50	7	0	41	90.0	98
38	7	0	47	373.0	92
37	7	0	54	325.0	98
47	7	0	80	491.0	134
39	7	0	45	20.0	91
38	7	0	48	175.0	93
32	7	0	68	111.0	107
38	7	0	51	337.0	96
35	7	0	41	138.0	83
44	7	0	52	464.0	103
35	7	0	46	477.0	88
34	7	0	66	258.0	107
33	7	0	45	84.0	85
47	7	0	57	201.0	111
40	7	0	77	86.0	124
49	7	0	79	220.0	135
42	7	0	69	121.0	118
32	7	0	45	128.0	84
48	7	0	56	40.0	111
39	7	0	86	34.0	132
40	7	0	50	301.0	97
39	7	0	93	274.0	139
35	7	0	83	378.0	125
38	7	0	46	46.0	91
36	7	0	78	444.0	121
40	7	0	48	388.0	95
40	7	0	41	193.0	88
37	7	0	50	498.0	94
39	7	0	47	196.0	93
36	7	0	68	207.0	111
37	7	0	44	132.0	88
34	7	0	68	203.0	109
39	7	0	45	440.0	91
39	7	0	47	403.0	93
40	7	0	44	480.0	91
33	7	0	43	433.0	83
38	7	0	51	219.0	96
43	7	0	53	311.0	103
40	7	0	44	237.0	91
39	7	0	81	283.0	127
36	7	0	71	130.0	114
35	7	0	46	69.0	88
44	7	0	51	323.0	102
37	7	0	66	462.0	110
32	7	0	73	39.0	112
38	7	0	46	304.0	91
33	7	0	63	484.0	103
41	7	0	59	332.0	107
35	7	0	74	224.0	116
38	7	0	48	338.0	93
37	7	0	49	387.0	93
39	7	0	71	279.0	117
42	7	0	78	479.0	127
35	7	0	45	394.0	87
35	7	0	49	85.0	91
39	7	0	50	106.0	96
48	7	0	51	243.0	106
59	7	0	49	103.0	115
33	7	0	55	422.0	95
38	7	0	46	176.0	91
43	7	0	78	383.0	128
30	7	0	49	492.0	86
33	7	0	45	216.0	85
37	7	0	49	109.0	93
34	7	0	46	209.0	87
34	7	0	84	4.0	125
41	7	0	48	414.0	96
47	7	0	52	234.0	106
33	7	0	45	290.0	85
41	7	0	47	276.0	95
30	7	0	52	442.0	89
41	7	0	72	496.0	120
36	7	0	45	443.0	88
42	7	0	80	188.0	129
42	7	0	45	368.0	94
39	7	0	76	24.0	122
40	7	0	44	232.0	91
33	7	0	71	239.0	111
51	7	0	68	48.0	126
37	7	0	87	3.0	131
36	7	0	57	363.0	100
38	7	0	45	181.0	90
35	7	0	45	50.0	87
43	7	0	48	127.0	98
42	7	0	83	327.0	132
41	7	0	48	357.0	96
41	7	0	89	240.0	137
42	7	0	47	114.0	96
37	7	0	64	135.0	108
47	7	0	49	101.0	103
37	7	0	55	397.0	99
57	7	0	94	113.0	158
36	7	0	47	182.0	90
32	7	0	41	281.0	80
39	7	0	46	97.0	92
38	7	0	45	42.0	90
42	7	0	78	421.0	127
40	7	0	83	409.0	130
35	7	0	47	250.0	89
43	7	0	47	438.0	97
39	7	0	44	116.0	90
30	7	0	68	308.0	105
36	7	0	53	208.0	96
49	7	0	78	371.0	134
50	7	0	43	424.0	100
38	7	0	72	210.0	117
47	7	0	77	185.0	131
45	7	0	60	186.0	112
53	7	0	75	68.0	135
47	7	0	47	66.0	101
34	7	0	45	88.0	86
37	7	0	51	14.0	95
39	7	0	49	244.0	95
48	7	0	61	318.0	116
41	7	0	45	294.0	93
41	7	0	44	400.0	92
31	7	0	60	471.0	98
36	7	0	45	286.0	88
37	7	0	67	198.0	111
41	7	0	46	251.0	94
37	7	0	74	82.0	118
40	7	0	45	489.0	92
36	7	0	63	152.0	106
33	7	0	41	482.0	81
32	7	0	52	324.0	91
37	7	0	46	413.0	90
35	7	0	60	112.0	102
48	7	0	62	146.0	117
34	7	0	45	15.0	86
44	7	0	45	374.0	96
38	7	0	75	22.0	120
37	7	0	60	262.0	104
38	7	0	54	211.0	99
35	7	0	45	300.0	87
36	7	0	69	333.0	112
50	7	0	49	330.0	106
40	7	0	53	200.0	100
35	7	0	73	280.0	115
40	7	0	69	213.0	116
36	7	0	70	314.0	113
36	7	0	46	407.0	89
32	7	0	48	38.0	87
35	7	0	51	331.0	93
34	7	0	67	32.0	108
40	7	0	47	451.0	94
32	7	0	74	268.0	113
36	7	0	49	395.0	92
36	7	0	46	35.0	89
43	7	0	45	420.0	95
46	7	0	57	439.0	110
39	7	0	77	28.0	123
41	7	0	43	150.0	91
42	7	0	71	9.0	120
33	7	0	46	278.0	86
40	7	0	46	253.0	93
38	7	0	45	148.0	90
38	7	0	44	107.0	89
35	7	0	81	481.0	123
39	7	0	46	272.0	92
42	7	0	64	145.0	113
44	7	0	44	449.0	95
32	7	0	42	360.0	81
43	7	0	64	459.0	114
35	7	0	65	254.0	107
37	7	0	45	389.0	89
38	7	0	64	457.0	109
44	7	0	89	366.0	140
37	7	0	51	169.0	95
35	7	0	57	81.0	99
45	7	0	73	376.0	125
45	7	0	44	205.0	96
42	7	0	91	21.0	140
42	7	0	49	264.0	98
40	7	0	96	430.0	143
40	7	0	47	370.0	94
40	7	0	74	259.0	121
47	7	0	53	348.0	107
39	7	0	52	249.0	98
45	7	0	59	341.0	111
33	7	0	72	456.0	112
35	7	0	63	123.0	105
38	7	0	48	463.0	93
42	7	0	44	57.0	93
42	7	0	48	53.0	97
41	7	0	44	23.0	92
37	7	0	47	155.0	91
37	7	0	52	465.0	96
37	7	0	84	167.0	128
41	7	0	77	126.0	125
36	7	0	62	334.0	105
43	7	0	65	458.0	115
38	7	0	60	454.0	105
29	7	0	71	452.0	107
39	7	0	47	165.0	93
32	7	0	49	100.0	88
38	7	0	83	434.0	128
38	7	0	48	467.0	93
38	7	0	60	425.0	105
40	7	0	57	192.0	104
33	7	0	42	142.0	82
42	7	0	87	11.0	136
38	7	0	44	349.0	89
42	7	0	86	263.0	135
37	7	0	47	406.0	91
44	7	0	85	282.0	136
34	7	0	45	336.0	86
35	7	0	76	322.0	118
38	7	0	73	435.0	118
39	7	0	43	12.0	89
37	7	0	79	483.0	123
36	7	0	51	246.0	94
42	7	0	46	104.0	95
35	7	0	69	379.0	111
31	7	0	43	392.0	81
35	7	0	82	233.0	124
40	7	0	77	361.0	124
44	7	0	49	144.0	100
31	7	0	51	122.0	89
38	7	0	57	189.0	102
39	7	0	64	386.0	110
40	7	0	45	255.0	92
37	7	0	77	67.0	121
35	7	0	68	79.0	110
41	7	0	45	261.0	93
42	7	0	66	93.0	115
36	7	0	73	431.0	116
49	7	0	98	453.0	154
39	7	0	53	313.0	99
42	7	0	66	25.0	115
35	7	0	66	328.0	108
28	7	0	45	351.0	80
30	7	0	61	293.0	98
39	7	0	46	26.0	92
32	7	0	61	179.0	100
44	7	0	87	499.0	138
30	7	0	73	77.0	110
38	7	0	88	75.0	133
38	7	0	54	375.0	99
36	7	0	42	7.0	85
34	7	0	75	445.0	116
44	7	0	50	404.0	101
43	7	0	45	139.0	95
47	7	0	41	37.0	95
52	7	0	75	54.0	134
33	7	0	51	390.0	91
32	7	0	67	401.0	106
37	7	0	42	49.0	86
38	7	0	71	33.0	116
40	7	0	63	36.0	110
49	7	0	48	199.0	104
41	7	0	45	31.0	93
38	7	0	43	87.0	88
50	7	0	53	339.0	110
38	7	0	43	399.0	88
32	7	0	45	156.0	84
39	7	0	43	493.0	89
41	7	0	48	391.0	96
40	7	0	69	426.0	116
37	7	0	50	72.0	94
32	7	0	50	273.0	89
48	7	0	47	102.0	102
39	7	0	47	56.0	93
45	7	0	47	437.0	99
32	7	0	41	89.0	80
43	7	0	81	245.0	131
33	7	0	45	428.0	85
36	7	0	43	310.0	86
37	7	0	76	17.0	120
35	7	0	48	153.0	90
35	7	0	46	382.0	88
36	7	0	49	402.0	92
36	7	0	51	326.0	94
43	7	0	47	6.0	97
39	7	0	92	275.0	138
33	7	0	51	296.0	91
42	7	0	64	317.0	113
36	7	0	44	500.0	87
40	7	0	81	359.0	128
47	7	0	72	408.0	126
39	7	0	54	270.0	100
40	7	0	75	30.0	122
32	7	0	47	204.0	86
41	7	0	47	118.0	95
36	7	0	49	187.0	92
34	7	0	69	411.0	110
33	7	0	55	115.0	95
45	7	0	62	174.0	114
34	7	0	50	110.0	91
42	7	0	46	92.0	95
36	7	0	47	312.0	90
46	7	0	87	178.0	140
39	7	0	47	350.0	93
35	7	0	49	47.0	91
36	7	0	49	436.0	92
36	7	0	71	343.0	114
44	7	0	51	125.0	102
34	7	0	54	99.0	95
36	7	0	46	27.0	89
38	7	0	51	43.0	96
38	7	0	46	460.0	91
38	7	0	43	469.0	88
35	7	0	49	416.0	91
41	7	0	51	134.0	99
58	7	0	49	284.0	114
38	7	0	46	450.0	91
54	7	0	92	133.0	153
41	7	0	52	344.0	100
45	7	0	62	214.0	114
36	7	0	44	412.0	87
48	7	0	56	455.0	111
32	7	0	51	195.0	90
42	7	0	57	137.0	106
35	7	0	45	149.0	87
47	7	0	49	74.0	103
41	7	0	68	470.0	116
39	7	0	44	168.0	90
39	7	0	52	346.0	98
43	7	0	74	80.0	124
46	7	0	88	105.0	141
40	7	0	79	141.0	126
48	7	0	75	265.0	130
45	7	0	45	190.0	97
43	7	0	46	18.0	96
45	7	0	47	157.0	99
44	7	0	60	329.0	111
33	7	0	53	16.0	93
46	7	0	46	271.0	99
32	7	0	47	427.0	86
34	7	0	72	385.0	113
39	7	0	78	377.0	124
50	7	0	47	143.0	104
35	7	0	44	235.0	86
35	7	0	48	124.0	90
36	7	0	86	70.0	129
38	7	0	45	78.0	90
39	7	0	84	441.0	130
37	7	0	75	13.0	119
33	7	0	49	256.0	89
30	7	0	56	94.0	93
47	7	0	76	396.0	130
42	7	0	58	340.0	107
42	7	0	72	41.0	121
36	7	0	42	247.0	85
39	7	0	61	171.0	107
39	7	0	77	29.0	123
33	7	0	45	147.0	85
36	7	0	57	154.0	100
36	7	0	46	225.0	89
36	7	0	63	197.0	106
38	7	0	49	347.0	94
36	7	0	71	184.0	114
50	7	0	91	298.0	148
32	7	0	76	2.0	115
35	7	0	47	108.0	89
28	7	0	44	466.0	79
35	7	0	53	5.0	95
37	7	0	45	364.0	89
36	7	0	50	320.0	93
37	7	0	47	473.0	91
31	7	0	43	71.0	81
38	7	0	51	117.0	96
43	7	0	46	191.0	96
37	7	0	71	173.0	115
41	7	0	80	95.0	128
40	7	0	46	260.0	93
38	7	0	52	307.0	97
39	7	0	87	446.0	133
36	7	0	47	495.0	90
39	7	0	75	352.0	121
38	7	0	84	494.0	129
44	7	0	53	490.0	104
41	7	0	46	269.0	94
40	7	0	45	405.0	92
37	7	0	44	398.0	88
31	7	0	74	429.0	112
32	7	0	71	136.0	110
38	7	0	84	91.0	129
39	7	0	56	252.0	102
38	7	0	52	55.0	97
35	7	0	48	472.0	90
33	7	0	68	432.0	108
35	7	0	77	476.0	119
35	7	0	47	487.0	89
36	7	0	58	19.0	101
39	7	0	41	305.0	87
34	7	0	55	1.0	96
40	7	0	89	423.0	136
39	7	0	75	177.0	121
33	7	0	49	474.0	89
31	7	0	54	10.0	92
34	7	0	50	321.0	91
41	7	0	67	319.0	115
36	7	0	86	170.0	129
