crisis	error	seed
2009	1	10.0
2002	1	365.0
2023	1	290.0
408	0	134.0
2262	0	357.0
1980	1	85.0
2097	1	32.0
2194	1	151.0
353	0	41.0
1984	1	416.0
2284	0	285.0
2256	0	421.0
2541	1	400.0
2278	0	348.0
2017	1	347.0
1958	1	58.0
2006	1	158.0
494	0	236.0
2092	1	210.0
1926	1	163.0
2440	0	5.0
2285	0	346.0
2304	0	304.0
1962	1	455.0
1960	1	415.0
1972	1	194.0
2027	1	437.0
2025	1	179.0
2251	0	197.0
1996	1	278.0
744	0	152.0
2015	1	208.0
1985	1	258.0
2001	1	201.0
2347	0	206.0
2378	0	444.0
1937	1	409.0
2342	0	344.0
2439	0	238.0
1993	1	233.0
2018	1	433.0
2292	0	138.0
1948	1	316.0
350	0	223.0
264	0	189.0
2070	1	73.0
2012	1	261.0
2340	0	362.0
2229	0	203.0
1992	1	274.0
2358	0	311.0
2262	0	493.0
2020	1	392.0
1997	1	40.0
2020	1	160.0
2257	0	495.0
1966	1	411.0
2385	0	295.0
2166	1	381.0
1940	1	59.0
1932	1	199.0
2335	0	358.0
1959	1	243.0
2236	0	224.0
2050	1	343.0
2311	0	149.0
396	0	322.0
2289	0	488.0
2298	0	478.0
2022	1	22.0
2366	0	264.0
2346	0	302.0
2298	0	494.0
2272	0	384.0
2031	1	226.0
2003	1	112.0
356	0	119.0
2393	0	222.0
2280	0	289.0
2559	0	104.0
1936	1	165.0
1989	1	353.0
2010	1	283.0
2352	0	97.0
1941	1	100.0
2267	0	486.0
2258	0	205.0
2060	1	500.0
1929	1	377.0
1984	1	317.0
1944	1	410.0
2018	1	204.0
2099	1	91.0
2220	1	207.0
2105	1	403.0
2285	0	312.0
2354	0	301.0
2282	0	352.0
2226	0	176.0
2249	1	396.0
2149	1	64.0
2305	0	44.0
2261	0	393.0
2054	1	4.0
2385	0	386.0
2326	0	309.0
2289	0	369.0
1936	1	351.0
2359	0	390.0
2330	0	498.0
2192	1	25.0
2270	0	221.0
2196	0	60.0
2032	1	496.0
2056	1	150.0
2148	1	122.0
1930	1	489.0
2355	0	472.0
2203	1	305.0
2011	1	191.0
2356	0	153.0
2054	1	70.0
2363	0	484.0
2028	1	286.0
2255	0	257.0
321	0	292.0
2020	1	180.0
2069	1	448.0
1990	1	75.0
1963	1	245.0
330	0	467.0
2108	1	474.0
1976	1	483.0
2062	1	121.0
1982	1	324.0
1963	1	8.0
2327	0	471.0
2352	0	427.0
2308	0	252.0
2293	0	492.0
1964	1	380.0
1959	1	395.0
2324	0	363.0
2375	0	404.0
2015	1	56.0
2549	0	349.0
2544	0	83.0
400	0	12.0
2248	0	215.0
1985	1	141.0
2105	1	133.0
2090	1	216.0
2307	0	225.0
2319	0	422.0
2257	0	462.0
2054	1	63.0
2493	0	465.0
2320	0	499.0
2011	1	171.0
1990	1	333.0
2247	0	263.0
1981	1	368.0
2048	1	414.0
1987	1	297.0
2396	0	218.0
2090	1	200.0
1970	1	463.0
2324	0	446.0
2293	0	306.0
2013	1	182.0
2492	0	136.0
2368	0	273.0
1975	1	170.0
2375	0	307.0
2062	1	482.0
1955	1	156.0
2442	0	86.0
2424	0	137.0
1962	1	479.0
2360	0	66.0
2090	1	80.0
2384	0	266.0
2055	1	355.0
2491	0	232.0
1972	1	452.0
2267	0	466.0
1993	1	388.0
1970	1	33.0
2046	1	277.0
2381	0	143.0
2343	0	213.0
2270	0	378.0
2486	0	464.0
1976	1	178.0
1971	1	186.0
2293	0	453.0
2371	0	382.0
2236	0	497.0
1935	1	361.0
2424	0	192.0
1976	1	473.0
2092	1	237.0
2481	0	54.0
554	0	366.0
2130	1	48.0
1955	1	405.0
2360	1	413.0
2360	0	375.0
2032	1	235.0
2070	1	96.0
2300	0	74.0
1992	1	371.0
2264	0	321.0
1982	1	49.0
1957	1	135.0
2116	1	325.0
2256	0	167.0
2280	0	6.0
2418	0	276.0
2247	0	50.0
2032	1	45.0
2056	1	105.0
1977	1	329.0
2254	0	65.0
2360	0	130.0
1957	1	255.0
2268	0	439.0
2408	0	260.0
2398	0	124.0
1967	1	239.0
2026	1	267.0
1951	1	27.0
1955	1	93.0
2011	1	159.0
2003	1	269.0
2293	0	328.0
2423	0	13.0
2048	1	281.0
2421	0	468.0
2242	0	313.0
1970	1	103.0
2110	1	420.0
2037	1	425.0
489	0	217.0
2341	0	145.0
1978	1	250.0
1998	1	55.0
1986	1	417.0
2251	0	337.0
2336	0	383.0
2346	0	53.0
2249	0	441.0
1974	1	113.0
1948	1	458.0
609	0	147.0
2222	0	175.0
2303	0	454.0
2358	0	359.0
2230	0	376.0
1963	1	338.0
2402	0	272.0
2179	1	196.0
2026	1	193.0
2436	0	128.0
2293	0	229.0
2291	0	280.0
1996	1	303.0
352	0	94.0
2235	0	47.0
2303	0	28.0
2047	1	89.0
1993	1	161.0
2038	1	157.0
2322	0	435.0
2323	0	132.0
2264	0	26.0
2057	1	336.0
2412	0	428.0
1975	1	79.0
2069	1	275.0
2413	0	114.0
2084	1	131.0
2033	1	429.0
2210	0	185.0
1981	1	2.0
2216	0	268.0
1980	1	172.0
2356	0	341.0
2333	0	247.0
2411	0	184.0
1944	1	457.0
1915	1	108.0
2231	1	111.0
2077	1	148.0
2421	0	52.0
2267	0	20.0
2270	0	335.0
2316	0	491.0
2076	1	234.0
2293	0	370.0
2366	0	326.0
2027	1	284.0
1967	1	402.0
418	0	315.0
2013	1	69.0
2070	1	487.0
2369	0	241.0
2025	1	334.0
2273	0	116.0
1966	1	214.0
2330	0	202.0
2255	0	291.0
2283	0	412.0
1985	1	310.0
1970	1	139.0
2316	0	298.0
1971	1	282.0
2631	0	397.0
2042	1	123.0
2264	0	142.0
2296	0	57.0
1992	1	84.0
2265	0	373.0
2303	0	24.0
2286	0	438.0
1990	1	211.0
1945	1	227.0
2036	1	118.0
2180	1	125.0
2324	0	319.0
2296	0	475.0
1961	1	481.0
2259	0	394.0
2243	0	401.0
1946	1	426.0
2042	1	340.0
2137	1	19.0
2259	0	34.0
1944	1	106.0
2086	1	408.0
1995	1	423.0
2270	0	254.0
2497	0	379.0
2307	0	389.0
1994	1	164.0
2498	0	419.0
2263	0	92.0
2073	1	299.0
2555	0	372.0
2228	1	445.0
2400	0	1.0
2091	1	107.0
2368	0	39.0
2454	0	296.0
1939	1	72.0
2328	0	15.0
2084	1	318.0
1924	1	190.0
2620	0	443.0
2335	0	198.0
1969	1	82.0
2311	0	11.0
508	0	77.0
2091	1	14.0
2162	1	246.0
2347	0	98.0
2269	0	38.0
2078	1	35.0
2377	0	68.0
1983	1	430.0
2027	1	228.0
2340	0	485.0
1969	1	99.0
2281	0	459.0
2417	0	331.0
1985	1	30.0
2201	1	432.0
1924	1	127.0
2280	0	43.0
2328	0	456.0
566	0	327.0
1969	1	187.0
2247	0	173.0
2327	0	374.0
2336	0	460.0
2089	1	271.0
1953	1	16.0
360	0	51.0
2041	1	399.0
2013	1	71.0
1952	1	188.0
2293	0	231.0
2098	1	166.0
1957	1	230.0
2009	1	195.0
2297	0	140.0
475	0	169.0
2035	1	61.0
2398	0	81.0
2168	1	177.0
2313	0	23.0
2351	0	90.0
2000	1	447.0
2055	1	76.0
2266	0	209.0
2005	1	183.0
2290	0	95.0
2298	0	288.0
2065	1	345.0
2223	0	88.0
2029	1	102.0
438	0	109.0
2368	0	126.0
1973	1	259.0
2290	0	3.0
1974	1	120.0
1988	1	37.0
2266	0	490.0
2255	0	314.0
2710	0	129.0
2389	0	244.0
2248	0	360.0
1930	1	18.0
2002	1	9.0
2011	1	251.0
2224	0	418.0
1977	1	364.0
1952	1	320.0
1978	1	387.0
778	0	146.0
2142	1	46.0
2380	0	434.0
2346	0	450.0
2446	0	265.0
2426	0	240.0
2515	0	440.0
2265	0	115.0
2156	1	253.0
2269	0	144.0
1960	1	36.0
2382	0	436.0
2024	1	350.0
2293	0	480.0
2342	0	220.0
2148	1	62.0
1974	1	342.0
2034	1	367.0
